Exploring_GBM_package_in_R
…
Predict \(y\) in the test/validation dataset using our final model:

final_gbm_pred <- predict( final_gbm_fit, 
                           newdata = testset,
                           n.trees = best_model$optimal_trees
                          )

bind_cols( true_y = testset$medv,
           final_gbm_prediction = final_gbm_pred ) %>% 
  mutate( difference = final_gbm_prediction - true_y )

## # A tibble: 101 x 3
##    true_y final_gbm_prediction difference
##     <dbl>                <dbl>      <dbl>
##  1   18.2                 19.8      1.58 
##  2   23.1                 21.5     -1.62 
##  3   18.2                 19.7      1.46 
##  4   13.6                 15.1      1.49 
##  5   14.5                 14.9      0.445
##  6   21                   18.9     -2.07 
##  7   12.7                 14.1      1.35 
##  8   13.5                 15.4      1.87 
##  9   24.7                 22.5     -2.21 
## 10   19.4                 19.6      0.247
## # ... with 91 more rows
…
