Experimentation of Modelling of Customer Spend Cycle
…
Model 1: Iterative Period/Cycle Grid Method

My idea here is that if someone is showing cyclic behaviour, then there is some period length and cycle length for which this cyclic behaviour can be captured.

Let’s try this out on the simulated data:

If we break up this persons transactions into periods of length 15, then the transactions look like this:

## spend times: 
## 0 8 33 48 104 110 137 149 204 214 244 254 306 316 341 352 405 411 439 455
## 
## # A tibble: 31 x 2
##    period    transacted
##    <chr>          <dbl>
##  1 [0,15]             1
##  2 (15,30]            0
##  3 (30,45]            1
##  4 (45,60]            1
##  5 (60,75]            0
##  6 (75,90]            0
##  7 (90,105]           1
##  8 (105,120]          1
##  9 (120,135]          0
## 10 (135,150]          1
## # ... with 21 more rows
…
