wide_and_deep_blog
…
py$traindat %>% 
  group_by( customer_id ) %>% 
  summarise( n_products_shown = n(),
             n_products_bought = sum(y_bought),
             .groups = "drop"
           ) %>% 
  group_by( n_products_shown, n_products_bought ) %>% 
  summarise( n_customers = n(), .groups="drop" ) %>% 
  arrange( desc(n_customers) )

## Warning in py_to_r.pandas.core.frame.DataFrame(x): index contains duplicated
## values: row names not set

## # A tibble: 176 x 3
##    n_products_shown n_products_bought n_customers
##               <int>             <dbl>       <int>
##  1               19                 1          33
##  2               17                 1          22
##  3               18                 0          22
##  4               16                 0          21
##  5               17                 0          19
##  6               20                 0          19
##  7               21                 1          19
##  8               18                 2          17
##  9               19                 3          17
## 10               20                 1          17
## # ... with 166 more rows
…
